<svg xmlns="http://www.w3.org/2000/svg" xmlns:xlink="http://www.w3.org/1999/xlink" width="23" height="13" viewBox="0 0 23 13">
  <defs>
    <clipPath id="clip-Custom_Size_1">
      <rect width="23" height="13"/>
    </clipPath>
  </defs>
  <g id="Custom_Size_1" data-name="Custom Size – 1" clip-path="url(#clip-Custom_Size_1)">
    <path id="angle-down" d="M10.406,194.166.283,183.886a1.048,1.048,0,0,1,0-1.484l.62-.62a1.048,1.048,0,0,1,1.484,0l8.762,8.928,8.762-8.919a1.048,1.048,0,0,1,1.484,0l.62.62a1.048,1.048,0,0,1,0,1.484L11.89,194.175A1.056,1.056,0,0,1,10.406,194.166Z" transform="translate(0.352 -181.475)"/>
  </g>
</svg>
